iterate(?provH0) :- q06_p(<116092>,FIOLCFLMFW,?provH0).
iterate(?provH0) :- q06_p(<120562>,YLWRAXIVWE,?provH0).
iterate(?provH0) :- q06_p(<30923>,VFOOKRTIVJ,?provH0).
iterate(?provH0) :- q06_p(<53771>,WKNAJZICHI,?provH0).
iterate(?provH0) :- q06_p(<100087>,HHPAZXGXLC,?provH0).
iterate(?provH0) :- q06_p(<2920>,EJHLHZDBRT,?provH0).
iterate(?provH0) :- q06_p(<113427>,XTCTMBGASR,?provH0).
iterate(?provH0) :- q06_p(<54994>,FPOGIOHIXC,?provH0).
iterate(?provH0) :- q06_p(<25375>,AAMLIQVONC,?provH0).
iterate(?provH0) :- q06_p(<13203>,GEWDHIWPJR,?provH0).
iterate(?provH0) :- q06_p(<52347>,INMHBTEFIG,?provH0).
iterate(?provH0) :- q06_p(<41541>,YBDXYDRMXB,?provH0).
iterate(?provH0) :- q06_p(<26328>,XZAXAFQXEK,?provH0).
iterate(?provH0) :- q06_p(<29506>,CWZMZIUVAN,?provH0).
iterate(?provH0) :- q06_p(<43191>,NLIQJPCPAF,?provH0).
iterate(?provH0) :- q06_p(<41056>,RWLXZCGZWO,?provH0).
iterate(?provH0) :- q06_p(<34712>,DTDRTPMPRR,?provH0).
iterate(?provH0) :- q06_p(<108210>,DUUOGEMLKG,?provH0).
iterate(?provH0) :- q06_p(<48086>,UPIHJQYFYL,?provH0).
iterate(?provH0) :- q06_p(<5936>,XXBWJFDINB,?provH0).
iterate(?provH0) :- q06_p(<31463>,XZFGEFMMNA,?provH0).
iterate(?provH0) :- q06_p(<12803>,RGUMUMWFOH,?provH0).
iterate(?provH0) :- q06_p(<108223>,LXIYABYKBK,?provH0).
iterate(?provH0) :- q06_p(<100650>,AQMBXZOOFW,?provH0).
iterate(?provH0) :- q06_p(<52254>,TEKKJLAJVQ,?provH0).
iterate(?provH0) :- q06_p(<108440>,LIFHATOYCZ,?provH0).
iterate(?provH0) :- q06_p(<103316>,MXHMKIUNNN,?provH0).
iterate(?provH0) :- q06_p(<2762>,XYJGWJCSLX,?provH0).
iterate(?provH0) :- q06_p(<9113>,RMGJEFMIJQ,?provH0).
iterate(?provH0) :- q06_p(<17763>,HVHYUBPAGV,?provH0).
iterate(?provH0) :- q06_p(<24287>,NYGBTUTGMF,?provH0).
iterate(?provH0) :- q06_p(<30286>,VMXVVXUYWD,?provH0).
iterate(?provH0) :- q06_p(<118838>,BVAHPCIJAT,?provH0).
iterate(?provH0) :- q06_p(<44470>,NEOMNCXTSL,?provH0).
iterate(?provH0) :- q06_p(<42455>,MKCSTIQIKO,?provH0).
iterate(?provH0) :- q06_p(<51822>,RNMXTLBFQZ,?provH0).
iterate(?provH0) :- q06_p(<46767>,EQQINRMEZI,?provH0).
iterate(?provH0) :- q06_p(<34114>,XXQZETGFPS,?provH0).
iterate(?provH0) :- q06_p(<46367>,RVKZUTLKVO,?provH0).
iterate(?provH0) :- q06_p(<115781>,PXFUWFWGMI,?provH0).
iterate(?provH0) :- q06_p(<12871>,YYNZPVCZNR,?provH0).
iterate(?provH0) :- q06_p(<9435>,BMAYEWNOHI,?provH0).
iterate(?provH0) :- q06_p(<1570>,XGISHEQCQQ,?provH0).
iterate(?provH0) :- q06_p(<16730>,WGYWUSSVJQ,?provH0).
iterate(?provH0) :- q06_p(<19747>,BZQQEFBEJO,?provH0).
iterate(?provH0) :- q06_p(<107444>,KCQBWAVIGE,?provH0).
iterate(?provH0) :- q06_p(<44940>,NJTQOHXTKT,?provH0).
iterate(?provH0) :- q06_p(<7206>,DXZXAPLIIW,?provH0).
iterate(?provH0) :- q06_p(<12179>,AQQYJLUHLN,?provH0).
iterate(?provH0) :- q06_p(<54267>,VUGSRRUOTZ,?provH0).
iterate(?provH0) :- q06_p(<30160>,QVTQGTSSSV,?provH0).
iterate(?provH0) :- q06_p(<19061>,RPAYXWGEGH,?provH0).
iterate(?provH0) :- q06_p(<5892>,CKETRROJGR,?provH0).
iterate(?provH0) :- q06_p(<29974>,TQLXCFEOYG,?provH0).
iterate(?provH0) :- q06_p(<20901>,SCQPKBATZR,?provH0).
iterate(?provH0) :- q06_p(<6257>,RPDYMZYFAA,?provH0).
iterate(?provH0) :- q06_p(<105737>,ROGEXNPIIR,?provH0).
iterate(?provH0) :- q06_p(<104592>,EBWLCPIGLG,?provH0).
iterate(?provH0) :- q06_p(<53380>,MDPVYQIVQN,?provH0).
iterate(?provH0) :- q06_p(<41189>,YZAVDFPNYV,?provH0).
iterate(?provH0) :- q06_p(<22649>,WTVZZUINLB,?provH0).
iterate(?provH0) :- q06_p(<40571>,HDBDAWMLPN,?provH0).
iterate(?provH0) :- q06_p(<25441>,HATQLKNJMD,?provH0).
iterate(?provH0) :- q06_p(<40534>,GLWMBCJWOH,?provH0).
iterate(?provH0) :- q06_p(<25982>,IRBHIGFZTB,?provH0).
iterate(?provH0) :- q06_p(<123840>,LFMUYHZSHG,?provH0).
iterate(?provH0) :- q06_p(<36356>,ZDSDFAOCQK,?provH0).
iterate(?provH0) :- q06_p(<39475>,ZOJPVKOWLF,?provH0).
iterate(?provH0) :- q06_p(<102802>,LBIKKUDUDU,?provH0).
iterate(?provH0) :- q06_p(<24856>,HXSGKLYESR,?provH0).
iterate(?provH0) :- q06_p(<107785>,QVBDBAUQLI,?provH0).
iterate(?provH0) :- q06_p(<51097>,CDYLGZSOJZ,?provH0).
iterate(?provH0) :- q06_p(<6665>,VKAOEUCKUK,?provH0).
iterate(?provH0) :- q06_p(<32037>,EOXNUXLCRV,?provH0).
iterate(?provH0) :- q06_p(<50653>,IAYZRDTOMJ,?provH0).
iterate(?provH0) :- q06_p(<115217>,RDLENBIEZA,?provH0).
iterate(?provH0) :- q06_p(<17796>,LIDFXNPXIV,?provH0).
iterate(?provH0) :- q06_p(<23158>,ARJOGDDBTC,?provH0).
iterate(?provH0) :- q06_p(<30419>,WGCKTAVZZB,?provH0).
iterate(?provH0) :- q06_p(<110462>,NKGWPPMOQG,?provH0).
iterate(?provH0) :- q06_p(<108167>,GFCXPUVRCX,?provH0).
iterate(?provH0) :- q06_p(<26534>,LYZQOHSBMF,?provH0).
iterate(?provH0) :- q06_p(<27600>,MZQTUORRGJ,?provH0).
iterate(?provH0) :- q06_p(<119730>,RKQJYORULF,?provH0).
iterate(?provH0) :- q06_p(<31819>,UFTKPHDFEQ,?provH0).
iterate(?provH0) :- q06_p(<32213>,KYQBMQCIKW,?provH0).
iterate(?provH0) :- q06_p(<122478>,YLRHLJANIT,?provH0).
iterate(?provH0) :- q06_p(<11228>,ZTAGFLMTGK,?provH0).
iterate(?provH0) :- q06_p(<100388>,BJBHGFABAR,?provH0).
iterate(?provH0) :- q06_p(<50922>,MYCPAUEDTN,?provH0).
iterate(?provH0) :- q06_p(<45533>,UWZJYSRNWM,?provH0).
iterate(?provH0) :- q06_p(<15037>,NEXEBGITZI,?provH0).
iterate(?provH0) :- q06_p(<7298>,KWJTZSOYEV,?provH0).
iterate(?provH0) :- q06_p(<5211>,WWIEFJVRBA,?provH0).
iterate(?provH0) :- q06_p(<15714>,ZEUFIZIEZE,?provH0).
iterate(?provH0) :- q06_p(<51523>,GZFNEHAAQM,?provH0).
iterate(?provH0) :- q06_p(<21260>,ZGDNEPTGZK,?provH0).
iterate(?provH0) :- q06_p(<16683>,QAACWQGZGU,?provH0).
iterate(?provH0) :- q06_p(<16106>,NTACERAQQZ,?provH0).
iterate(?provH0) :- q06_p(<45868>,RXUXYZAKVD,?provH0).
