iterate(?provH0) :- q04_p(<34129>,TEon90466,?provH0).
iterate(?provH0) :- q04_p(<119107>,NSvb22504,?provH0).
iterate(?provH0) :- q04_p(<9967>,AWyf72927,?provH0).
iterate(?provH0) :- q04_p(<112159>,LAyu80888,?provH0).
iterate(?provH0) :- q04_p(<36867>,WBhw78738,?provH0).
iterate(?provH0) :- q04_p(<45156>,RCnu38440,?provH0).
iterate(?provH0) :- q04_p(<8870>,HZvm57078,?provH0).
iterate(?provH0) :- q04_p(<107245>,YLnc22737,?provH0).
iterate(?provH0) :- q04_p(<107132>,QWjo07359,?provH0).
iterate(?provH0) :- q04_p(<5820>,LHom94887,?provH0).
iterate(?provH0) :- q04_p(<54065>,IRws99043,?provH0).
iterate(?provH0) :- q04_p(<38891>,UHfp19209,?provH0).
iterate(?provH0) :- q04_p(<11390>,YVkh75090,?provH0).
iterate(?provH0) :- q04_p(<120147>,UGkh78311,?provH0).
iterate(?provH0) :- q04_p(<14301>,VFdt44521,?provH0).
iterate(?provH0) :- q04_p(<30268>,BIme32370,?provH0).
iterate(?provH0) :- q04_p(<54724>,HGap46949,?provH0).
iterate(?provH0) :- q04_p(<108249>,MQsv70135,?provH0).
iterate(?provH0) :- q04_p(<17887>,GPec49074,?provH0).
iterate(?provH0) :- q04_p(<112342>,HXwv05131,?provH0).
iterate(?provH0) :- q04_p(<34470>,TYlx10449,?provH0).
iterate(?provH0) :- q04_p(<12123>,GDyf87894,?provH0).
iterate(?provH0) :- q04_p(<22720>,PBju18355,?provH0).
iterate(?provH0) :- q04_p(<45239>,HYak48124,?provH0).
iterate(?provH0) :- q04_p(<50939>,BZoj33895,?provH0).
iterate(?provH0) :- q04_p(<8702>,BMeb34949,?provH0).
iterate(?provH0) :- q04_p(<1156>,ZYmf70954,?provH0).
iterate(?provH0) :- q04_p(<37797>,HOrs83522,?provH0).
iterate(?provH0) :- q04_p(<22672>,LFsv41896,?provH0).
iterate(?provH0) :- q04_p(<29421>,TJnl02791,?provH0).
iterate(?provH0) :- q04_p(<111231>,EWtt41067,?provH0).
iterate(?provH0) :- q04_p(<103109>,JSlb24611,?provH0).
iterate(?provH0) :- q04_p(<13137>,IBal69241,?provH0).
iterate(?provH0) :- q04_p(<26493>,BMeb34949,?provH0).
iterate(?provH0) :- q04_p(<25010>,BBvu30019,?provH0).
iterate(?provH0) :- q04_p(<111938>,FIdq97104,?provH0).
iterate(?provH0) :- q04_p(<52061>,NFwr86594,?provH0).
iterate(?provH0) :- q04_p(<107331>,MBxp53364,?provH0).
iterate(?provH0) :- q04_p(<116258>,JVvn48164,?provH0).
iterate(?provH0) :- q04_p(<10068>,QWuc33092,?provH0).
iterate(?provH0) :- q04_p(<40875>,CEua89582,?provH0).
iterate(?provH0) :- q04_p(<24411>,QYrv15003,?provH0).
iterate(?provH0) :- q04_p(<13774>,VIom83599,?provH0).
iterate(?provH0) :- q04_p(<52792>,VRpy24625,?provH0).
iterate(?provH0) :- q04_p(<109799>,QWjo07359,?provH0).
iterate(?provH0) :- q04_p(<41764>,THdc53677,?provH0).
iterate(?provH0) :- q04_p(<12435>,JKde82557,?provH0).
iterate(?provH0) :- q04_p(<4276>,HZmz43445,?provH0).
iterate(?provH0) :- q04_p(<3755>,VCdt45357,?provH0).
iterate(?provH0) :- q04_p(<3312>,AIyv24468,?provH0).
iterate(?provH0) :- q04_p(<108133>,GGxl39913,?provH0).
iterate(?provH0) :- q04_p(<53253>,QDit65307,?provH0).
iterate(?provH0) :- q04_p(<47457>,STbj13364,?provH0).
iterate(?provH0) :- q04_p(<17653>,RCjd17384,?provH0).
iterate(?provH0) :- q04_p(<50732>,SMtf29587,?provH0).
iterate(?provH0) :- q04_p(<119957>,OMfl29636,?provH0).
iterate(?provH0) :- q04_p(<101835>,GUwe86208,?provH0).
iterate(?provH0) :- q04_p(<18844>,VYcm04803,?provH0).
iterate(?provH0) :- q04_p(<45659>,MMbw14671,?provH0).
iterate(?provH0) :- q04_p(<27654>,DHax93064,?provH0).
iterate(?provH0) :- q04_p(<15119>,KXbl84610,?provH0).
iterate(?provH0) :- q04_p(<37971>,SGkx31746,?provH0).
iterate(?provH0) :- q04_p(<37763>,XDoq86966,?provH0).
iterate(?provH0) :- q04_p(<106843>,JAgb06787,?provH0).
iterate(?provH0) :- q04_p(<35519>,XBvj28233,?provH0).
iterate(?provH0) :- q04_p(<36305>,BNwn76246,?provH0).
iterate(?provH0) :- q04_p(<116068>,BKkl47387,?provH0).
iterate(?provH0) :- q04_p(<119400>,KMmu07707,?provH0).
iterate(?provH0) :- q04_p(<121561>,INmr01859,?provH0).
iterate(?provH0) :- q04_p(<47606>,OSlb80978,?provH0).
iterate(?provH0) :- q04_p(<54818>,JKde82557,?provH0).
iterate(?provH0) :- q04_p(<48915>,LRku69516,?provH0).
iterate(?provH0) :- q04_p(<33841>,PMyy57522,?provH0).
iterate(?provH0) :- q04_p(<5649>,AZlm73688,?provH0).
iterate(?provH0) :- q04_p(<51398>,DHax93064,?provH0).
iterate(?provH0) :- q04_p(<102317>,HGwg25472,?provH0).
iterate(?provH0) :- q04_p(<36632>,JBgu99882,?provH0).
iterate(?provH0) :- q04_p(<24987>,TIhm12355,?provH0).
iterate(?provH0) :- q04_p(<7782>,VIom83599,?provH0).
iterate(?provH0) :- q04_p(<100273>,JXcc86289,?provH0).
iterate(?provH0) :- q04_p(<26023>,ZLtg78724,?provH0).
iterate(?provH0) :- q04_p(<9669>,DVnl16861,?provH0).
iterate(?provH0) :- q04_p(<39629>,QMll75759,?provH0).
iterate(?provH0) :- q04_p(<52429>,UNqh98748,?provH0).
iterate(?provH0) :- q04_p(<54465>,NKfj47772,?provH0).
iterate(?provH0) :- q04_p(<123911>,GYmj89569,?provH0).
iterate(?provH0) :- q04_p(<123500>,FSyk95828,?provH0).
iterate(?provH0) :- q04_p(<119173>,LPox83531,?provH0).
iterate(?provH0) :- q04_p(<115537>,ZYlj64258,?provH0).
iterate(?provH0) :- q04_p(<8561>,VZeu85324,?provH0).
iterate(?provH0) :- q04_p(<7486>,GGdn40117,?provH0).
iterate(?provH0) :- q04_p(<39185>,DZwr69170,?provH0).
iterate(?provH0) :- q04_p(<54084>,QWzx34087,?provH0).
iterate(?provH0) :- q04_p(<11606>,HGap46949,?provH0).
iterate(?provH0) :- q04_p(<50643>,QVbe15546,?provH0).
iterate(?provH0) :- q04_p(<48503>,YZwo69243,?provH0).
iterate(?provH0) :- q04_p(<9959>,GVnn33000,?provH0).
iterate(?provH0) :- q04_p(<53619>,YAdk68633,?provH0).
iterate(?provH0) :- q04_p(<102721>,ZPzm74638,?provH0).
iterate(?provH0) :- q04_p(<21442>,CEua89582,?provH0).
