iterate(?provH0) :- q07_p(YVBARRPNXS,<2187>,?provH0).
iterate(?provH0) :- q07_p(DWTNASFOJM,<2475>,?provH0).
iterate(?provH0) :- q07_p(PMAYCJYDVN,<447>,?provH0).
iterate(?provH0) :- q07_p(HVVFPJFGJC,<2465>,?provH0).
iterate(?provH0) :- q07_p(MSPLCEBLJQ,<2488>,?provH0).
iterate(?provH0) :- q07_p(QOQPMYASQP,<2362>,?provH0).
iterate(?provH0) :- q07_p(YOHUPHVLZV,<2403>,?provH0).
iterate(?provH0) :- q07_p(XAXQQMZXZQ,<2325>,?provH0).
iterate(?provH0) :- q07_p(GOHTXLOQFS,<426>,?provH0).
iterate(?provH0) :- q07_p(OAVQPVWYXC,<2173>,?provH0).
iterate(?provH0) :- q07_p(FZVKAZKSUT,<2055>,?provH0).
iterate(?provH0) :- q07_p(WVERJUYWBW,<273>,?provH0).
iterate(?provH0) :- q07_p(FNHTMYDQDL,<423>,?provH0).
iterate(?provH0) :- q07_p(NGXWXVSIJK,<466>,?provH0).
iterate(?provH0) :- q07_p(NLMVQBRLJT,<296>,?provH0).
iterate(?provH0) :- q07_p(IEIVGJHBCF,<205>,?provH0).
iterate(?provH0) :- q07_p(ANUTXAFANU,<500>,?provH0).
iterate(?provH0) :- q07_p(OUCOPGVAHP,<2149>,?provH0).
iterate(?provH0) :- q07_p(PHYBSFKHMB,<2142>,?provH0).
iterate(?provH0) :- q07_p(QESDSQHOYR,<2150>,?provH0).
iterate(?provH0) :- q07_p(KCBKYXWTQV,<297>,?provH0).
iterate(?provH0) :- q07_p(BBZIKBBDQT,<2049>,?provH0).
iterate(?provH0) :- q07_p(OHEZUPSSXC,<386>,?provH0).
iterate(?provH0) :- q07_p(DKZFMSRDDE,<493>,?provH0).
iterate(?provH0) :- q07_p(MKGQRGNJQZ,<96>,?provH0).
iterate(?provH0) :- q07_p(SZXLOROMRE,<2213>,?provH0).
iterate(?provH0) :- q07_p(ONFDKOHMBI,<350>,?provH0).
iterate(?provH0) :- q07_p(TETEYQRNQX,<160>,?provH0).
iterate(?provH0) :- q07_p(IXSRWBSRBG,<140>,?provH0).
iterate(?provH0) :- q07_p(INPJZRPMZF,<2472>,?provH0).
iterate(?provH0) :- q07_p(AADOOYNSOL,<2485>,?provH0).
iterate(?provH0) :- q07_p(YKNTWSAESF,<2137>,?provH0).
iterate(?provH0) :- q07_p(PSVGFLFFMR,<495>,?provH0).
iterate(?provH0) :- q07_p(DUQESIUEAB,<2500>,?provH0).
iterate(?provH0) :- q07_p(YWDCJEIJNV,<2442>,?provH0).
iterate(?provH0) :- q07_p(UBLADRIIXR,<2186>,?provH0).
iterate(?provH0) :- q07_p(XNERGDHPPD,<451>,?provH0).
iterate(?provH0) :- q07_p(EIGCEOHQKK,<2400>,?provH0).
iterate(?provH0) :- q07_p(JPWNMOYOUY,<2004>,?provH0).
iterate(?provH0) :- q07_p(XQDDGKNGBO,<2287>,?provH0).
iterate(?provH0) :- q07_p(QEGYFEQDFJ,<2043>,?provH0).
iterate(?provH0) :- q07_p(PAZKYPFLVP,<2129>,?provH0).
iterate(?provH0) :- q07_p(VFCQVSCYZV,<2289>,?provH0).
iterate(?provH0) :- q07_p(KLPFLSLZYY,<304>,?provH0).
iterate(?provH0) :- q07_p(QGXSVMQOCZ,<20>,?provH0).
iterate(?provH0) :- q07_p(BVWQILSTUS,<145>,?provH0).
iterate(?provH0) :- q07_p(BVANJIAUYX,<2242>,?provH0).
iterate(?provH0) :- q07_p(KRNOLGOBWP,<190>,?provH0).
iterate(?provH0) :- q07_p(FPIQSBKUZY,<201>,?provH0).
iterate(?provH0) :- q07_p(RNJDVDBZAA,<300>,?provH0).
iterate(?provH0) :- q07_p(KPHGBBQBCJ,<109>,?provH0).
iterate(?provH0) :- q07_p(UIMNNTMSQP,<2499>,?provH0).
iterate(?provH0) :- q07_p(YXYIPWBLQM,<2134>,?provH0).
iterate(?provH0) :- q07_p(HSSUAEFHJS,<2009>,?provH0).
iterate(?provH0) :- q07_p(AUFZXPFRDQ,<2188>,?provH0).
iterate(?provH0) :- q07_p(WRFPHAQJUF,<2034>,?provH0).
iterate(?provH0) :- q07_p(GHOXRQXHLP,<2495>,?provH0).
iterate(?provH0) :- q07_p(DFKAQUMSUX,<125>,?provH0).
iterate(?provH0) :- q07_p(SSZAJVEFPZ,<2253>,?provH0).
iterate(?provH0) :- q07_p(PMHGWLMAMQ,<2282>,?provH0).
iterate(?provH0) :- q07_p(YBXFHCOWFB,<2374>,?provH0).
iterate(?provH0) :- q07_p(PXNVOQPYOT,<2444>,?provH0).
iterate(?provH0) :- q07_p(SFMQTIDDBA,<456>,?provH0).
iterate(?provH0) :- q07_p(FBMHBBSGIB,<419>,?provH0).
iterate(?provH0) :- q07_p(USQAHFBKFD,<2111>,?provH0).
iterate(?provH0) :- q07_p(CKVMSKMUWK,<2085>,?provH0).
iterate(?provH0) :- q07_p(NQHOLEMGWV,<2433>,?provH0).
iterate(?provH0) :- q07_p(DOTZIWKXZW,<86>,?provH0).
iterate(?provH0) :- q07_p(OUARWJGHPJ,<2154>,?provH0).
iterate(?provH0) :- q07_p(PHZLGFMUFD,<2127>,?provH0).
iterate(?provH0) :- q07_p(GKOFXRBONT,<307>,?provH0).
iterate(?provH0) :- q07_p(ZENCXZWRUS,<2360>,?provH0).
iterate(?provH0) :- q07_p(VFZEOUCRJS,<84>,?provH0).
iterate(?provH0) :- q07_p(BJMEYHCWUO,<2077>,?provH0).
iterate(?provH0) :- q07_p(NRUCGAJGNV,<2227>,?provH0).
iterate(?provH0) :- q07_p(YSFPRMCXXB,<309>,?provH0).
iterate(?provH0) :- q07_p(QHRITDHEXZ,<207>,?provH0).
iterate(?provH0) :- q07_p(QWTWRDLFXK,<194>,?provH0).
iterate(?provH0) :- q07_p(OSRJGKJMSM,<2132>,?provH0).
iterate(?provH0) :- q07_p(RDXDRPUISB,<339>,?provH0).
iterate(?provH0) :- q07_p(KLIKCBHADW,<1>,?provH0).
iterate(?provH0) :- q07_p(PZXSUMFKOC,<363>,?provH0).
iterate(?provH0) :- q07_p(YMKTARVVZM,<261>,?provH0).
iterate(?provH0) :- q07_p(FWKSYGSHKX,<195>,?provH0).
iterate(?provH0) :- q07_p(ZZGXAXKUZW,<2307>,?provH0).
iterate(?provH0) :- q07_p(PTYTAWUQDN,<437>,?provH0).
iterate(?provH0) :- q07_p(UJDMYYVDWL,<66>,?provH0).
iterate(?provH0) :- q07_p(PUEAIICLWH,<2306>,?provH0).
iterate(?provH0) :- q07_p(KTUUITMEYW,<2198>,?provH0).
iterate(?provH0) :- q07_p(EIQXFVLFLB,<2083>,?provH0).
iterate(?provH0) :- q07_p(PFTBVHBEVY,<235>,?provH0).
iterate(?provH0) :- q07_p(LWVOYZSADX,<2382>,?provH0).
iterate(?provH0) :- q07_p(AKSPMRYDZH,<463>,?provH0).
iterate(?provH0) :- q07_p(UFCOBQSNFZ,<2305>,?provH0).
iterate(?provH0) :- q07_p(LOMVDKXFHM,<2109>,?provH0).
iterate(?provH0) :- q07_p(KXRVERIGUS,<2016>,?provH0).
iterate(?provH0) :- q07_p(PIJSIWDWZB,<2195>,?provH0).
iterate(?provH0) :- q07_p(OKTJPYTJUE,<245>,?provH0).
iterate(?provH0) :- q07_p(FYZVXGAACJ,<2162>,?provH0).
iterate(?provH0) :- q07_p(WWSIDFZBEY,<2421>,?provH0).
