iterate(?provH0) :- q03_p(<109057>,YFKZORHSFN,?provH0).
iterate(?provH0) :- q03_p(<13586>,UDUGRGTASF,?provH0).
iterate(?provH0) :- q03_p(<40451>,CMEUUBWWGQ,?provH0).
iterate(?provH0) :- q03_p(<23845>,LQVOSFPUEI,?provH0).
iterate(?provH0) :- q03_p(<121341>,VFVDRSBDXY,?provH0).
iterate(?provH0) :- q03_p(<109152>,CPROQMKNDW,?provH0).
iterate(?provH0) :- q03_p(<113078>,ELMXNJHEXN,?provH0).
iterate(?provH0) :- q03_p(<47805>,VSBPDDRAUY,?provH0).
iterate(?provH0) :- q03_p(<15339>,YCNIMPSVYT,?provH0).
iterate(?provH0) :- q03_p(<28330>,AMGEGMIWQE,?provH0).
iterate(?provH0) :- q03_p(<7326>,UKRCUGLEJU,?provH0).
iterate(?provH0) :- q03_p(<109441>,IMLISNUDHJ,?provH0).
iterate(?provH0) :- q03_p(<54117>,KBSBYEKVCS,?provH0).
iterate(?provH0) :- q03_p(<39291>,YUVMSSDPSJ,?provH0).
iterate(?provH0) :- q03_p(<111642>,PNKYUNMFEY,?provH0).
iterate(?provH0) :- q03_p(<15720>,PNZEJSNNOF,?provH0).
iterate(?provH0) :- q03_p(<44115>,UDUGRGTASF,?provH0).
iterate(?provH0) :- q03_p(<53884>,NRVQYIMUCX,?provH0).
iterate(?provH0) :- q03_p(<53995>,FMVOOUHRIF,?provH0).
iterate(?provH0) :- q03_p(<113847>,AHEPIYZVOA,?provH0).
iterate(?provH0) :- q03_p(<49539>,JEOOSROLEO,?provH0).
iterate(?provH0) :- q03_p(<106346>,MBYHKKTOCK,?provH0).
iterate(?provH0) :- q03_p(<44090>,ANUTXAFANU,?provH0).
iterate(?provH0) :- q03_p(<24043>,PGAUGEVUBD,?provH0).
iterate(?provH0) :- q03_p(<33677>,KCDMVGERZE,?provH0).
iterate(?provH0) :- q03_p(<15152>,GNFXHFNTFE,?provH0).
iterate(?provH0) :- q03_p(<29630>,GWBCMKADBG,?provH0).
iterate(?provH0) :- q03_p(<120761>,CYCNCQKIFY,?provH0).
iterate(?provH0) :- q03_p(<106698>,OXVHDAHHCA,?provH0).
iterate(?provH0) :- q03_p(<958>,MTASXXROTO,?provH0).
iterate(?provH0) :- q03_p(<10209>,ZLDUPCOQJC,?provH0).
iterate(?provH0) :- q03_p(<22387>,ZKBJJRNEYN,?provH0).
iterate(?provH0) :- q03_p(<122255>,JVUXFKDEJQ,?provH0).
iterate(?provH0) :- q03_p(<13707>,QQVNEWVQWD,?provH0).
iterate(?provH0) :- q03_p(<121699>,HZSYXQMHFF,?provH0).
iterate(?provH0) :- q03_p(<36738>,TPIIKKWXDP,?provH0).
iterate(?provH0) :- q03_p(<54141>,CAXVLUPLRX,?provH0).
iterate(?provH0) :- q03_p(<48538>,AKSPMRYDZH,?provH0).
iterate(?provH0) :- q03_p(<121897>,MMEOAYSIRZ,?provH0).
iterate(?provH0) :- q03_p(<122758>,QRTIZWGQOK,?provH0).
iterate(?provH0) :- q03_p(<30259>,DCOFFOVYKF,?provH0).
iterate(?provH0) :- q03_p(<28712>,ATBKPAMLMA,?provH0).
iterate(?provH0) :- q03_p(<40418>,UBJEMPMCDF,?provH0).
iterate(?provH0) :- q03_p(<30307>,QHRITDHEXZ,?provH0).
iterate(?provH0) :- q03_p(<117659>,SDYDFEOARX,?provH0).
iterate(?provH0) :- q03_p(<27733>,HYFAKSTNTZ,?provH0).
iterate(?provH0) :- q03_p(<19344>,WKNBBBWQSP,?provH0).
iterate(?provH0) :- q03_p(<38626>,FSJRBQAKYK,?provH0).
iterate(?provH0) :- q03_p(<25084>,PSRBLGQMYH,?provH0).
iterate(?provH0) :- q03_p(<38030>,ONFDKOHMBI,?provH0).
iterate(?provH0) :- q03_p(<113249>,CPROQMKNDW,?provH0).
iterate(?provH0) :- q03_p(<109612>,NQHOLEMGWV,?provH0).
iterate(?provH0) :- q03_p(<102250>,HWEFXKYDCH,?provH0).
iterate(?provH0) :- q03_p(<27958>,NHURBLXEDD,?provH0).
iterate(?provH0) :- q03_p(<38860>,UVNCQNLSCI,?provH0).
iterate(?provH0) :- q03_p(<54100>,PGAUGEVUBD,?provH0).
iterate(?provH0) :- q03_p(<123362>,PGVFBGJPWS,?provH0).
iterate(?provH0) :- q03_p(<32218>,JEOOSROLEO,?provH0).
iterate(?provH0) :- q03_p(<46126>,VXXYCGEUEI,?provH0).
iterate(?provH0) :- q03_p(<109024>,GKOOHTYROR,?provH0).
iterate(?provH0) :- q03_p(<42073>,BYLHLEZFTL,?provH0).
iterate(?provH0) :- q03_p(<33951>,FNQOYTFUZD,?provH0).
iterate(?provH0) :- q03_p(<111181>,LUOOYLTXMT,?provH0).
iterate(?provH0) :- q03_p(<6620>,QNNPLRWTDP,?provH0).
iterate(?provH0) :- q03_p(<121279>,YAOIXLWRHG,?provH0).
iterate(?provH0) :- q03_p(<111547>,EKPNYMCFPC,?provH0).
iterate(?provH0) :- q03_p(<9687>,KNYCQJSTZZ,?provH0).
iterate(?provH0) :- q03_p(<33182>,ZJNORGRVZQ,?provH0).
iterate(?provH0) :- q03_p(<8587>,IGEGFIMQCG,?provH0).
iterate(?provH0) :- q03_p(<5822>,NHIHCEZBUM,?provH0).
iterate(?provH0) :- q03_p(<121373>,AHVVQBXIDC,?provH0).
iterate(?provH0) :- q03_p(<48478>,BVWQILSTUS,?provH0).
iterate(?provH0) :- q03_p(<101428>,HIFWQRHJNL,?provH0).
iterate(?provH0) :- q03_p(<45035>,AVGNKOGJRX,?provH0).
iterate(?provH0) :- q03_p(<7467>,QFVOWQLQVE,?provH0).
iterate(?provH0) :- q03_p(<102507>,IZMIRIFXQT,?provH0).
iterate(?provH0) :- q03_p(<32009>,SRYRLJFJSM,?provH0).
iterate(?provH0) :- q03_p(<123919>,YQJYFETDBI,?provH0).
iterate(?provH0) :- q03_p(<8431>,DVPNRTORKS,?provH0).
iterate(?provH0) :- q03_p(<42083>,FPOLRERSAB,?provH0).
iterate(?provH0) :- q03_p(<1428>,RFNWPNCGMG,?provH0).
iterate(?provH0) :- q03_p(<11481>,UDRTKMRYZS,?provH0).
iterate(?provH0) :- q03_p(<33120>,YDSZIDSCJZ,?provH0).
iterate(?provH0) :- q03_p(<18215>,FPWTIYOGVS,?provH0).
iterate(?provH0) :- q03_p(<24704>,GWBCMKADBG,?provH0).
iterate(?provH0) :- q03_p(<45438>,ZXGCFEGHHP,?provH0).
iterate(?provH0) :- q03_p(<103815>,VOJLKHWPNH,?provH0).
iterate(?provH0) :- q03_p(<28643>,PZXSUMFKOC,?provH0).
iterate(?provH0) :- q03_p(<118542>,RKEIGIBJBU,?provH0).
iterate(?provH0) :- q03_p(<51173>,VMNUNBHLLJ,?provH0).
iterate(?provH0) :- q03_p(<120535>,KJENQEAHTX,?provH0).
iterate(?provH0) :- q03_p(<118251>,PHZLGFMUFD,?provH0).
iterate(?provH0) :- q03_p(<50016>,ZBHKTPRFCJ,?provH0).
iterate(?provH0) :- q03_p(<48082>,PILSTVQUAB,?provH0).
iterate(?provH0) :- q03_p(<16066>,JOCDPNJNWP,?provH0).
iterate(?provH0) :- q03_p(<115176>,IEDGQCKHRI,?provH0).
iterate(?provH0) :- q03_p(<2175>,FWKSYGSHKX,?provH0).
iterate(?provH0) :- q03_p(<119341>,HSSUAEFHJS,?provH0).
iterate(?provH0) :- q03_p(<36928>,SIMAZLRROE,?provH0).
iterate(?provH0) :- q03_p(<54619>,QWTWRDLFXK,?provH0).
