iterate(?provH0) :- q01_p(CEjc13656,?provH0).
iterate(?provH0) :- q01_p(NRqo35212,?provH0).
iterate(?provH0) :- q01_p(ZShn78080,?provH0).
iterate(?provH0) :- q01_p(CClq20900,?provH0).
iterate(?provH0) :- q01_p(ERct28785,?provH0).
iterate(?provH0) :- q01_p(SMxn42414,?provH0).
iterate(?provH0) :- q01_p(BQzm21840,?provH0).
iterate(?provH0) :- q01_p(FFzr40792,?provH0).
iterate(?provH0) :- q01_p(EYhb98920,?provH0).
iterate(?provH0) :- q01_p(EWtt41067,?provH0).
iterate(?provH0) :- q01_p(WCwg76518,?provH0).
iterate(?provH0) :- q01_p(EQru45465,?provH0).
iterate(?provH0) :- q01_p(GZhg96258,?provH0).
iterate(?provH0) :- q01_p(CQci81984,?provH0).
iterate(?provH0) :- q01_p(PYdu99947,?provH0).
iterate(?provH0) :- q01_p(UCeu97732,?provH0).
iterate(?provH0) :- q01_p(WMpr93802,?provH0).
iterate(?provH0) :- q01_p(SZlk84267,?provH0).
iterate(?provH0) :- q01_p(IBij39808,?provH0).
iterate(?provH0) :- q01_p(XDyj42826,?provH0).
iterate(?provH0) :- q01_p(QYqk46813,?provH0).
iterate(?provH0) :- q01_p(CFrw62532,?provH0).
iterate(?provH0) :- q01_p(EMme24447,?provH0).
iterate(?provH0) :- q01_p(LZja01940,?provH0).
iterate(?provH0) :- q01_p(PTtj57323,?provH0).
iterate(?provH0) :- q01_p(XPav99161,?provH0).
iterate(?provH0) :- q01_p(IXfc27030,?provH0).
iterate(?provH0) :- q01_p(WRfx23652,?provH0).
iterate(?provH0) :- q01_p(PTce32203,?provH0).
iterate(?provH0) :- q01_p(HCyp31309,?provH0).
iterate(?provH0) :- q01_p(LJrn86897,?provH0).
iterate(?provH0) :- q01_p(XOhw00262,?provH0).
iterate(?provH0) :- q01_p(IZfl70771,?provH0).
iterate(?provH0) :- q01_p(GUnx51597,?provH0).
iterate(?provH0) :- q01_p(UYbw79174,?provH0).
iterate(?provH0) :- q01_p(WLvz91288,?provH0).
iterate(?provH0) :- q01_p(RNks88164,?provH0).
iterate(?provH0) :- q01_p(GWkz44481,?provH0).
iterate(?provH0) :- q01_p(HRwa28001,?provH0).
iterate(?provH0) :- q01_p(UPbt35402,?provH0).
iterate(?provH0) :- q01_p(URlp59256,?provH0).
iterate(?provH0) :- q01_p(ZXdk32686,?provH0).
iterate(?provH0) :- q01_p(XAjs08157,?provH0).
iterate(?provH0) :- q01_p(ZRwc22408,?provH0).
iterate(?provH0) :- q01_p(MBxp53364,?provH0).
iterate(?provH0) :- q01_p(LKjz18654,?provH0).
iterate(?provH0) :- q01_p(AQgh76778,?provH0).
iterate(?provH0) :- q01_p(DZtu50882,?provH0).
iterate(?provH0) :- q01_p(ULdj47117,?provH0).
iterate(?provH0) :- q01_p(KIou46716,?provH0).
iterate(?provH0) :- q01_p(OWfs30499,?provH0).
iterate(?provH0) :- q01_p(JKde82557,?provH0).
iterate(?provH0) :- q01_p(HOrs83522,?provH0).
iterate(?provH0) :- q01_p(SXdl17186,?provH0).
iterate(?provH0) :- q01_p(ORim54132,?provH0).
iterate(?provH0) :- q01_p(LLxo93648,?provH0).
iterate(?provH0) :- q01_p(LFsv41896,?provH0).
iterate(?provH0) :- q01_p(QZjg34882,?provH0).
iterate(?provH0) :- q01_p(BOjm62910,?provH0).
iterate(?provH0) :- q01_p(KQow48849,?provH0).
iterate(?provH0) :- q01_p(VXdj74309,?provH0).
iterate(?provH0) :- q01_p(TKyo10642,?provH0).
iterate(?provH0) :- q01_p(OHfx11308,?provH0).
iterate(?provH0) :- q01_p(LIhz64254,?provH0).
iterate(?provH0) :- q01_p(DWed74919,?provH0).
iterate(?provH0) :- q01_p(XSga63965,?provH0).
iterate(?provH0) :- q01_p(UAnb35960,?provH0).
iterate(?provH0) :- q01_p(VFcn38224,?provH0).
iterate(?provH0) :- q01_p(FSlq74160,?provH0).
iterate(?provH0) :- q01_p(YVsf91665,?provH0).
iterate(?provH0) :- q01_p(ARgq12362,?provH0).
iterate(?provH0) :- q01_p(BVus03013,?provH0).
iterate(?provH0) :- q01_p(TSjf35092,?provH0).
iterate(?provH0) :- q01_p(BMeb34949,?provH0).
iterate(?provH0) :- q01_p(WFui85827,?provH0).
iterate(?provH0) :- q01_p(ZFyu37222,?provH0).
iterate(?provH0) :- q01_p(KAsb01478,?provH0).
iterate(?provH0) :- q01_p(PDlh83375,?provH0).
iterate(?provH0) :- q01_p(NSvb22504,?provH0).
iterate(?provH0) :- q01_p(HNpy30352,?provH0).
iterate(?provH0) :- q01_p(GFvm76224,?provH0).
iterate(?provH0) :- q01_p(NTcb17161,?provH0).
iterate(?provH0) :- q01_p(QWzx34087,?provH0).
iterate(?provH0) :- q01_p(RPsh89965,?provH0).
iterate(?provH0) :- q01_p(IZds59697,?provH0).
iterate(?provH0) :- q01_p(LWhj29184,?provH0).
iterate(?provH0) :- q01_p(RAgk84776,?provH0).
iterate(?provH0) :- q01_p(MEky58374,?provH0).
iterate(?provH0) :- q01_p(KXyn75763,?provH0).
iterate(?provH0) :- q01_p(NLwg84499,?provH0).
iterate(?provH0) :- q01_p(NOug80617,?provH0).
iterate(?provH0) :- q01_p(DMmt53022,?provH0).
iterate(?provH0) :- q01_p(LNfc75584,?provH0).
iterate(?provH0) :- q01_p(QYrv15003,?provH0).
iterate(?provH0) :- q01_p(HPyj43589,?provH0).
iterate(?provH0) :- q01_p(FWec31579,?provH0).
iterate(?provH0) :- q01_p(ZYum83054,?provH0).
iterate(?provH0) :- q01_p(LGxt27455,?provH0).
iterate(?provH0) :- q01_p(UEpc91786,?provH0).
iterate(?provH0) :- q01_p(WOrh11181,?provH0).
