iterate(?provH0) :- q05_p(NVjp72275,LKTWMPARKJ,<327>,?provH0).
iterate(?provH0) :- q05_p(YFqd80349,XFTAMVOFFM,<165>,?provH0).
iterate(?provH0) :- q05_p(CRcc13229,XLKKUZSHRW,<45>,?provH0).
iterate(?provH0) :- q05_p(KRon40285,TETEYQRNQX,<160>,?provH0).
iterate(?provH0) :- q05_p(AJzj65930,GOKNJPDUXM,<137>,?provH0).
iterate(?provH0) :- q05_p(NFwr86594,ABBMTCFPZE,<226>,?provH0).
iterate(?provH0) :- q05_p(DEam83152,FEZGDYWEVA,<494>,?provH0).
iterate(?provH0) :- q05_p(BBst13231,QBSZKUZAOQ,<387>,?provH0).
iterate(?provH0) :- q05_p(MVsm63278,OYCTIKLDYK,<199>,?provH0).
iterate(?provH0) :- q05_p(IRws99043,OGXHKKJYED,<70>,?provH0).
iterate(?provH0) :- q05_p(GVnn33000,UJDMYYVDWL,<66>,?provH0).
iterate(?provH0) :- q05_p(OIww59704,XBOMZZLMYY,<243>,?provH0).
iterate(?provH0) :- q05_p(LJrn86897,YSFPRMCXXB,<309>,?provH0).
iterate(?provH0) :- q05_p(XLcf26087,AWSXFCMQQK,<64>,?provH0).
iterate(?provH0) :- q05_p(CRrq98509,PCQUDPGBKY,<92>,?provH0).
iterate(?provH0) :- q05_p(OOro56169,BQCQIERUHC,<8>,?provH0).
iterate(?provH0) :- q05_p(JKde82557,EXAHGRGNFH,<120>,?provH0).
iterate(?provH0) :- q05_p(PWow85152,RVXKIZZZQC,<434>,?provH0).
iterate(?provH0) :- q05_p(VUwl45963,XPSCLOOJNJ,<65>,?provH0).
iterate(?provH0) :- q05_p(KRvv57699,ZTXYZZMMNC,<118>,?provH0).
iterate(?provH0) :- q05_p(TIhm12355,GCGADGUQCW,<212>,?provH0).
iterate(?provH0) :- q05_p(JTal15673,OFGFIQPGMF,<351>,?provH0).
iterate(?provH0) :- q05_p(LHom94887,URPCXKBVLW,<352>,?provH0).
iterate(?provH0) :- q05_p(LYbr44848,OXIXXKJRUL,<384>,?provH0).
iterate(?provH0) :- q05_p(EMvg96157,EDAXSUDHKD,<258>,?provH0).
iterate(?provH0) :- q05_p(BOld07561,PTYTAWUQDN,<437>,?provH0).
iterate(?provH0) :- q05_p(GDyf87894,HUAJDYVDAE,<228>,?provH0).
iterate(?provH0) :- q05_p(MMzz17982,YKYFSDNJDA,<344>,?provH0).
iterate(?provH0) :- q05_p(AIqo82410,ALKXLJAKTD,<308>,?provH0).
iterate(?provH0) :- q05_p(BBvu30019,SHYTNTBCBT,<232>,?provH0).
iterate(?provH0) :- q05_p(RGxn19131,DVPNRTORKS,<38>,?provH0).
iterate(?provH0) :- q05_p(HJcq25963,ZJJMVDMBTQ,<237>,?provH0).
iterate(?provH0) :- q05_p(BFel59732,QOPAUWAUKR,<217>,?provH0).
iterate(?provH0) :- q05_p(DKdy43512,NUOVQNUPHY,<206>,?provH0).
iterate(?provH0) :- q05_p(CPzh69767,DKESTAKTIZ,<430>,?provH0).
iterate(?provH0) :- q05_p(IRvc79351,DOJBDJYFEH,<483>,?provH0).
iterate(?provH0) :- q05_p(RCjd17384,DIPXKETZDB,<438>,?provH0).
iterate(?provH0) :- q05_p(WGwy32648,DNMONIIFVK,<2>,?provH0).
iterate(?provH0) :- q05_p(TYlx10449,VMNUNBHLLJ,<116>,?provH0).
iterate(?provH0) :- q05_p(VRky27160,ULBLPYNEPU,<107>,?provH0).
iterate(?provH0) :- q05_p(DBsw69144,EFRJMAPBUE,<6>,?provH0).
iterate(?provH0) :- q05_p(IDmc56150,GAWTEKMHIT,<53>,?provH0).
iterate(?provH0) :- q05_p(YQwj72557,BBFWECRFYD,<115>,?provH0).
iterate(?provH0) :- q05_p(GYnz55229,DLMDTEHNPX,<181>,?provH0).
iterate(?provH0) :- q05_p(WXde14381,HLDUCPDBFQ,<121>,?provH0).
iterate(?provH0) :- q05_p(NSls56213,SGZCVEEKLB,<340>,?provH0).
iterate(?provH0) :- q05_p(EGjs03751,RJCJIHVPYA,<185>,?provH0).
iterate(?provH0) :- q05_p(DKlf48070,KTKXKLSMYQ,<286>,?provH0).
iterate(?provH0) :- q05_p(ORim54132,MBHIGSCBZT,<271>,?provH0).
iterate(?provH0) :- q05_p(CPxr28020,XNERGDHPPD,<451>,?provH0).
iterate(?provH0) :- q05_p(PCnb38372,TKRUYNCPLW,<136>,?provH0).
iterate(?provH0) :- q05_p(KHhy71190,VXXYCGEUEI,<218>,?provH0).
iterate(?provH0) :- q05_p(POay11342,EJWETKKLFQ,<355>,?provH0).
iterate(?provH0) :- q05_p(RMrm16761,OKTJPYTJUE,<245>,?provH0).
iterate(?provH0) :- q05_p(BQzm21840,PUSYQOYMET,<480>,?provH0).
iterate(?provH0) :- q05_p(GQmw79530,UDRTKMRYZS,<260>,?provH0).
iterate(?provH0) :- q05_p(RInl33187,MODLIGAYZL,<49>,?provH0).
iterate(?provH0) :- q05_p(GFvm76224,SFMQTIDDBA,<456>,?provH0).
iterate(?provH0) :- q05_p(SJzf90151,GZKLILQZHS,<219>,?provH0).
iterate(?provH0) :- q05_p(AOux55579,EEEEHEKZID,<61>,?provH0).
iterate(?provH0) :- q05_p(TEon90466,PVVZHAJATB,<420>,?provH0).
iterate(?provH0) :- q05_p(BJoy42254,IEIVGJHBCF,<205>,?provH0).
iterate(?provH0) :- q05_p(MKyy13189,OFLQYNENGV,<83>,?provH0).
iterate(?provH0) :- q05_p(YVkh75090,YGIMERHLHN,<397>,?provH0).
iterate(?provH0) :- q05_p(PDlh83375,VEARIPJCCT,<458>,?provH0).
iterate(?provH0) :- q05_p(MUhh77499,OZMJWMALKQ,<452>,?provH0).
iterate(?provH0) :- q05_p(WIvp43393,XRASSWRNLJ,<444>,?provH0).
iterate(?provH0) :- q05_p(LXyp31943,IJXOELNLGB,<255>,?provH0).
iterate(?provH0) :- q05_p(ELfu34969,MUXPNFXMDL,<311>,?provH0).
iterate(?provH0) :- q05_p(RVpj00867,AFQOWHYKVW,<330>,?provH0).
iterate(?provH0) :- q05_p(ZFca52833,EQEGJNKNCP,<250>,?provH0).
iterate(?provH0) :- q05_p(DSsb19995,IVJKPTGZXI,<281>,?provH0).
iterate(?provH0) :- q05_p(NHhr24525,DIWKGSWMVA,<417>,?provH0).
iterate(?provH0) :- q05_p(VCdt45357,GISRRAVEXD,<146>,?provH0).
iterate(?provH0) :- q05_p(MEky58374,WDOFJYYYMK,<326>,?provH0).
iterate(?provH0) :- q05_p(FYcb22212,QIOCYNNRFV,<10>,?provH0).
iterate(?provH0) :- q05_p(EYhb98920,PZXSUMFKOC,<363>,?provH0).
iterate(?provH0) :- q05_p(IFnj21041,GDAPKVGTEM,<104>,?provH0).
iterate(?provH0) :- q05_p(CByu45149,NGXWXVSIJK,<466>,?provH0).
iterate(?provH0) :- q05_p(ITpv23015,HTMRTYBUFV,<153>,?provH0).
iterate(?provH0) :- q05_p(PTce32203,METWEBSAMZ,<381>,?provH0).
iterate(?provH0) :- q05_p(FBdp59732,PCZABAFPJE,<139>,?provH0).
iterate(?provH0) :- q05_p(XYag49496,ZQIFJDKELW,<90>,?provH0).
iterate(?provH0) :- q05_p(HIqi93868,JOCDPNJNWP,<302>,?provH0).
iterate(?provH0) :- q05_p(DAeh90309,PHQWLMPRBH,<299>,?provH0).
iterate(?provH0) :- q05_p(WFwv95305,FZKTGPIXCU,<221>,?provH0).
iterate(?provH0) :- q05_p(GTlm70254,OWVFREUHUG,<238>,?provH0).
iterate(?provH0) :- q05_p(GTfp96690,BLVHSJLLYK,<471>,?provH0).
iterate(?provH0) :- q05_p(KKsf66909,WKNBBBWQSP,<37>,?provH0).
iterate(?provH0) :- q05_p(UXtj02406,RVAQLXMOBE,<405>,?provH0).
iterate(?provH0) :- q05_p(UJiv50742,CYZJKHJVXB,<424>,?provH0).
iterate(?provH0) :- q05_p(FPyv87305,FTGIJRBILJ,<127>,?provH0).
iterate(?provH0) :- q05_p(YRou42068,FESVCQJQBZ,<401>,?provH0).
iterate(?provH0) :- q05_p(DLhy89418,OHIXYQDDBG,<108>,?provH0).
iterate(?provH0) :- q05_p(JLqk00886,GVAGKAYRYZ,<87>,?provH0).
iterate(?provH0) :- q05_p(AYlu94829,GNFXHFNTFE,<446>,?provH0).
iterate(?provH0) :- q05_p(NSoq94951,FPWTIYOGVS,<454>,?provH0).
iterate(?provH0) :- q05_p(HDkd69535,EAKNKGQEYC,<69>,?provH0).
iterate(?provH0) :- q05_p(THdc53677,VNLEUCFELO,<11>,?provH0).
iterate(?provH0) :- q05_p(NTsc06273,BYNSGEMPRP,<28>,?provH0).
